[
      {"number" : 101,
        "title" : "Kazodenni fraze",
        "words" :
        [
          {
            "cz" : "Kolik je hodin?",
            "de" : "Wie es ist Spät?",
          },
          {
            "cz" : "Jsou tři hodiny",
            "de" : "Es ist 3 Uhr",
          },
          {
            "cz": "Dej mi to!",
            "de": "Geben Sie mir dies.",
          },
          {
            "cz" : "Jste si jisti?",
            "de" : "Sind Sie sicher?",
          },
          {
            "cz" : "Vem si to! ",
            "de" : "Nehmen Sie dies",
          },
          {
            "cz" : "Mrzne (počasí)",
            "de" : "Es ist bitterkalt.",
          },
          {
            "cz" : "Je zima (za příznivého počasí)",
            "de" : "Es ist kalt.",
          },
          {
            "cz" : "Je horko (počasí)",
            "de" : "Es ist Heiss.",
          },
          {
            "cz" : "Líbí se ti to?",
            "de" : "Mögen Sie dies?",
          },
          {
            "cz" : "Moc se mi to líbí!",
            "de" : "I mag es sehr!",
          },
          {
            "cz" : "Mám hlad",
            "de" : "Ich habe Hunger.",
          },
          {
            "cz" : "Mám žízeň",
            "de" : "Ich habe Durst.",
          },
          {
            "cz" : "Je to legrační",
            "de" : "Er ist komish",
          },
          {
            "cz" : "Ráno",
            "de" : "Am Morgen",
          },
          {
            "cz" : "Večer",
            "de" : "Am Abend",
          },
          {
            "cz" : "V noci",
            "de" : "In der Nacht",
          },
          {
            "cz" : "Pospěšte si!",
            "de" : "Beeil Dich!",
          },
        ]
      }
]
