[
      {"number" : 8,
        "title" : "lekce_de_8",
        "words" :
        [
          {
            "cz" : "cukr",
            "de" : "Der Zucker",
          },
          {
            "cz" : "cvičit, procvičovat",
            "de" : "üben",
          },
          {
            "cz": "dvakrát",
            "de": "zweimal",
          },
          {
            "cz" : "hezký",
            "de" : "hübsch",
          },
          {
            "cz" : "hloupý",
            "de" : "dumm",
          },
          {
            "cz" : "hodina",
            "de" : "die Stunde",
          },
          {
            "cz" : "host",
            "de" : "der Gast",
          },
          {
            "cz" : "houska",
            "de" : "das Brötchen",
          },
          {
            "cz": "jídlo, pokrm",
            "de": "die Speise",
          },
          {
            "cz" : "knedlík",
            "de" : "der Knödel",
          },
          {
            "cz" : "meruňka",
            "de" : "die Aprikose",
          },
          {
            "cz" : "mléko",
            "de" : "die Milch",
          },
          {
            "cz" : "některý, mnohý",
            "de" : "mancher",
          },
          {
            "cz" : "opravovat",
            "de" : "korrigieren",
          },
          {
            "cz": "pro, za",
            "de": "für",
          },
          {
            "cz" : "před (místně i časově) ",
            "de" : "vor",
          },
          {
            "cz" : "překládat",
            "de" : "übersetzen",
          },
          {
            "cz" : "příklad",
            "de" : "das Beispiel",
          },
          {
            "cz" : "slovíčko",
            "de" : "die Vokabel",
          },
          {
            "cz" : "unavený",
            "de" : "müde",
          },
          {
            "cz": "určitý, určitě",
            "de": "bestimmt",
          },
          {
            "cz" : "vyprávět",
            "de" : "erzählen",
          },
          {
            "cz" : "zapomenout",
            "de" : "vergessen",
          },
          {
            "cz" : "brambor",
            "de" : "die Kartoffel",
          },
          {
            "cz" : "doporučit",
            "de" : "empfehlen",
          },
          {
            "cz" : "hádanka",
            "de" : "das Rätsel",
          },
          {
            "cz": "hlavní jídlo",
            "de": "das Hauptgericht",
          },
          {
            "cz" : "hodiny",
            "de" : "die Uhr",
          },
          {
            "cz" : "hovězí pečeně",
            "de" : "der Rindbraten",
          },
          {
            "cz" : "chlazený",
            "de" : "gekühlt",
          },
          {
            "cz" : "kaše",
            "de" : "der Brei",
          },
          {
            "cz" : "málo",
            "de" : "wenig",
          },
          {
            "cz": "marmeláda",
            "de": "die Konfitüre",
          },
          {
            "cz" : "neboť",
            "de" : "denn",
          },
          {
            "cz" : "něco jiného",
            "de" : "etwas Anderes",
          },
          {
            "cz" : "obsah",
            "de" : "der Inhalt",
          },
          {
            "cz" : "odpovídat",
            "de" : "antworten",
          },
          {
            "cz" : "přednáška",
            "de" : "die Vorlesung",
          },
          {
            "cz" : "připravený",
            "de" : "vorbereitet",
          },
          {
            "cz" : "přísný",
            "de" : "streng",
          },
          {
            "cz" : "psát",
            "de" : "schreiben",
          },
          {
            "cz" : "tak",
            "de" : "so",
          },
          {
            "cz" : "úkol, úloha",
            "de" : "die Aufgabe",
          },
          {
            "cz" : "(uprostřed věty) vždyť",
            "de" : "ja",
          },
          {
            "cz" : "veselý",
            "de" : "lustig",
          },
          {
            "cz" : "všichni",
            "de" : "alle",
          }
        ]
      }
]
