[
      {"number" : 4,
        "title" : "lekce_de_4",
        "words" :
        [
          {
            "cz" : "brzy",
            "de" : "bald",
          },
          {
            "cz" : "docela",
            "de" : "ganz",
          },
          {
            "cz": "domů",
            "de": "nach Hause",
          },
          {
            "cz" : "dostat",
            "de" : "bekommen",
          },
          {
            "cz" : "kutit",
            "de" : "basteln",
          },
          {
            "cz" : "líný",
            "de" : "faul",
          },
          {
            "cz" : "myslet, mínit",
            "de" : "meinen",
          },
          {
            "cz" : "někdy, občas",
            "de" : "manchmal",
          },
          {
            "cz" : "nudný",
            "de" : "langweilig",
          },
          {
            "cz" : "okamžik",
            "de" : "der Augenblick",
          },
          {
            "cz" : "pilný",
            "de" : "fleissig",
          },
          {
            "cz" : "pozdě",
            "de" : "spät",
          },
          {
            "cz" : "teď, nyní",
            "de" : "jetz",
          },
          {
            "cz" : "velmi",
            "de" : "sehr",
          },
          {
            "cz" : "z",
            "de" : "aus",
          },
          {
            "cz" : "zvědavý",
            "de" : "neugierig",
          }
        ]
      }
]
